<?xml version="1.0" encoding="UTF-8"?>
<svg width="160px" height="79px" viewBox="0 0 160 79" version="1.1" xmlns="http://www.w3.org/2000/svg" xmlns:xlink="http://www.w3.org/1999/xlink">
    <!-- Generator: Sketch 59.1 (86144) - https://sketch.com -->
    <title>Совместный лого</title>
    <desc>Created with Sketch.</desc>
    <g id="Совместный-лого" stroke="none" stroke-width="1" fill="none" fill-rule="evenodd">
        <polygon id="Fill-1" fill="#18449A" points="0.524 60.143 159.264 60.143 159.264 0.615 0.524 0.615"></polygon>
        <path d="M45.609,24.543 L39.782,24.321 C38.514,24.323 38.832,23.199 38.947,22.928 L39.799,19.815 C40.853,17.124 37.178,17.591 37.109,17.58 C35.461,17.576 22.316,17.582 22.316,17.582 L21.408,19.98 C21.408,19.98 27.285,19.98 27.365,19.982 C29.042,20.014 28.527,21.076 28.469,21.293 C28.469,21.293 27.532,24.346 27.531,24.355 C26.953,26.167 28.577,26.084 28.659,26.084 C28.659,26.084 33.803,26.096 33.812,26.098 C34.713,26.01 34.725,26.592 34.697,26.759 C34.612,27.208 33.401,30.763 33.401,30.763 C33.282,31.033 33.343,31.864 31.324,31.911 C31.324,31.911 27.376,32.025 27.356,32.023 C26.331,31.948 25.421,32.281 25.015,33.455 C25.001,33.499 23.958,36.198 23.958,36.198 C23.861,36.474 23.603,37.75 22.189,37.776 L16.005,37.782 L14.886,40.436 L30.004,40.472 C33.989,40.436 34.849,37.732 34.858,37.707 L35.848,34.92 C36.306,33.554 37.617,33.574 37.617,33.574 C37.617,33.574 41.558,33.554 43.482,33.554 C45.403,33.554 45.79,31.586 45.79,31.586 C45.79,31.586 46.847,27.643 47.161,26.529 C47.78,24.317 45.635,24.541 45.609,24.543" id="Fill-2" fill="#FFFFFE"></path>
        <path d="M17.687,30.694 C17.31,31.782 16.372,31.899 15.42,31.899 L8.413,31.899 C7.462,31.899 7.275,31.096 7.618,30.274 L8.637,27.17 C8.979,26.348 9.532,26.081 10.482,26.081 L17.653,26.081 C18.605,26.081 19.091,26.647 18.748,27.468 L17.687,30.694" id="Fill-3" fill="#FFFFFE"></path>
        <path d="M59.477,29.542 L58.203,32.863 C58.134,33.043 58.036,33.157 57.906,33.204 C57.776,33.255 57.616,33.277 57.424,33.277 L55.762,33.278 C55.496,33.278 55.34,33.245 55.291,33.176 C55.244,33.106 55.247,33.004 55.299,32.865 L58.152,25.427 C58.221,25.247 58.319,25.134 58.448,25.086 C58.575,25.037 58.735,25.011 58.926,25.011 L60.577,25.011 C60.767,25.011 60.898,25.024 60.971,25.044 C61.044,25.064 61.09,25.143 61.112,25.28 L61.782,28.222 C61.789,28.319 61.835,28.368 61.925,28.368 C61.996,28.368 62.074,28.319 62.155,28.222 L65.133,25.258 C65.274,25.123 65.381,25.046 65.452,25.032 C65.524,25.02 65.655,25.011 65.849,25.011 L67.51,25.011 C67.703,25.011 67.844,25.038 67.937,25.086 C68.028,25.134 68.042,25.247 67.972,25.427 L65.12,32.865 C65.066,33.004 64.991,33.106 64.89,33.176 C64.79,33.245 64.607,33.278 64.341,33.278 L62.679,33.278 C62.487,33.278 62.346,33.255 62.254,33.204 C62.161,33.157 62.149,33.043 62.219,32.864 L63.476,29.583 C63.472,29.515 63.457,29.479 63.428,29.479 C63.306,29.535 63.241,29.566 63.236,29.582 L61.698,31.036 C61.581,31.145 61.485,31.226 61.407,31.281 C61.275,31.364 61.128,31.405 60.967,31.405 L60.57,31.413 C60.425,31.413 60.31,31.374 60.225,31.29 C60.188,31.236 60.154,31.153 60.123,31.043 L59.696,29.541 C59.688,29.485 59.648,29.459 59.576,29.459 L59.477,29.542" id="Fill-4" fill="#FFFFFE"></path>
        <path d="M75.577,25.291 C75.034,25.014 74.264,24.879 73.264,24.879 C71.618,24.879 70.313,25.236 69.347,25.95 C68.706,26.431 68.234,27.07 67.928,27.867 L66.965,30.379 C66.512,31.561 66.807,32.399 67.853,32.892 C68.529,33.193 69.507,33.346 70.786,33.346 C71.184,33.346 71.637,33.33 72.15,33.294 C72.664,33.258 73.187,33.181 73.718,33.057 C73.91,33.016 74.041,32.972 74.112,32.923 C74.181,32.874 74.233,32.81 74.265,32.725 L74.715,31.551 C74.81,31.305 74.659,31.221 74.261,31.303 C73.796,31.404 73.363,31.479 72.964,31.53 C72.563,31.579 72.129,31.604 71.66,31.604 C70.986,31.604 70.499,31.497 70.199,31.281 C69.903,31.067 69.831,30.757 69.986,30.352 L70.185,29.83 C70.201,29.79 70.234,29.751 70.285,29.717 C70.336,29.681 70.411,29.665 70.515,29.665 L74.94,29.665 C75.128,29.665 75.289,29.637 75.42,29.582 C75.551,29.528 75.652,29.412 75.721,29.232 L76.247,27.858 C76.719,26.625 76.495,25.769 75.577,25.291 Z M73.353,27.555 L73.228,27.882 C73.132,27.978 73.041,28.025 72.954,28.025 L71.096,28.025 C70.951,28.025 70.895,27.978 70.932,27.882 L71.058,27.555 C71.194,27.205 71.395,26.942 71.663,26.773 C71.932,26.602 72.257,26.519 72.635,26.519 C73.087,26.519 73.355,26.652 73.441,26.925 C73.492,27.062 73.46,27.272 73.353,27.555 L73.353,27.555 Z" id="Fill-5" fill="#FFFFFE"></path>
        <path d="M86.405,25.085 C86.313,25.037 86.171,25.011 85.979,25.011 L80.283,25.011 C80.018,25.011 79.836,25.046 79.736,25.114 C79.637,25.181 79.561,25.284 79.509,25.419 L79.33,25.828 C78.951,26.822 78.53,27.73 78.075,28.559 C77.617,29.386 77.106,30.17 76.543,30.914 C76.385,31.137 76.283,31.266 76.238,31.308 C76.035,31.528 75.795,31.637 75.515,31.637 L75.273,31.637 C75.126,31.637 74.997,31.676 74.887,31.752 C74.779,31.826 74.701,31.926 74.653,32.048 L73.696,34.542 C73.629,34.721 73.641,34.83 73.732,34.881 C73.824,34.927 73.965,34.952 74.156,34.952 L75.788,34.952 C75.979,34.952 76.14,34.927 76.268,34.881 C76.396,34.834 76.495,34.723 76.562,34.549 L76.963,33.499 C77.022,33.353 77.164,33.278 77.401,33.278 L81.319,33.278 C81.553,33.278 81.643,33.353 81.586,33.499 L81.184,34.549 C81.139,34.669 81.137,34.766 81.183,34.841 C81.229,34.916 81.382,34.952 81.648,34.952 L83.28,34.952 C83.47,34.952 83.629,34.927 83.76,34.881 C83.887,34.83 83.985,34.721 84.053,34.542 L85.011,32.048 C85.077,31.87 85.066,31.757 84.977,31.709 C84.885,31.662 84.747,31.637 84.557,31.637 L84.339,31.637 C84.151,31.637 84.086,31.563 84.144,31.412 L86.44,25.42 C86.509,25.244 86.498,25.131 86.405,25.085 Z M81.127,31.431 C81.073,31.569 80.959,31.637 80.782,31.637 L79.13,31.637 C79.071,31.637 79.021,31.598 78.979,31.514 C79.315,31.128 79.651,30.743 79.989,30.355 C80.427,29.663 80.899,28.656 81.409,27.328 L81.592,26.85 C81.648,26.74 81.754,26.685 81.908,26.685 L82.692,26.685 C82.861,26.685 82.924,26.74 82.882,26.85 L81.127,31.431 L81.127,31.431 Z" id="Fill-6" fill="#FFFFFE"></path>
        <path d="M89.864,30.352 L90.029,29.926 C90.069,29.819 90.009,29.763 89.849,29.763 L87.633,29.763 C87.371,29.763 87.218,29.728 87.172,29.651 C87.128,29.578 87.13,29.478 87.178,29.355 L87.53,28.433 C87.598,28.256 87.695,28.143 87.822,28.097 C87.951,28.049 88.11,28.025 88.3,28.025 L90.515,28.025 C90.676,28.025 90.778,27.967 90.824,27.854 L90.88,27.704 C90.99,27.417 90.955,27.182 90.779,26.996 C90.573,26.768 90.185,26.651 89.614,26.651 C89.337,26.651 88.95,26.688 88.455,26.757 C88.177,26.799 87.956,26.819 87.796,26.819 C87.633,26.819 87.539,26.793 87.507,26.737 C87.478,26.681 87.48,26.612 87.509,26.53 L87.931,25.435 C88,25.257 88.142,25.134 88.359,25.064 C88.746,24.939 89.467,24.879 90.522,24.879 C92.315,24.879 93.436,25.195 93.884,25.826 C94.2,26.266 94.191,26.919 93.86,27.782 L92.882,30.337 C92.549,31.202 92.131,31.834 91.625,32.234 C90.68,32.975 89.23,33.346 87.277,33.346 C86.219,33.346 85.544,33.289 85.249,33.179 C85.084,33.109 85.036,32.984 85.106,32.803 L85.529,31.696 C85.605,31.502 85.774,31.405 86.037,31.405 C86.273,31.438 86.517,31.471 86.767,31.505 L87.716,31.604 C88.433,31.604 88.975,31.451 89.343,31.14 C89.556,30.964 89.732,30.701 89.864,30.352" id="Fill-7" fill="#FFFFFE"></path>
        <path d="M94.804,33.278 L93.032,33.278 C92.766,33.278 92.608,33.245 92.563,33.176 C92.514,33.106 92.517,33.003 92.572,32.865 L95.422,25.427 C95.492,25.247 95.589,25.133 95.718,25.086 C95.849,25.037 96.008,25.011 96.202,25.011 L97.971,25.011 C98.164,25.011 98.304,25.038 98.398,25.086 C98.491,25.133 98.502,25.244 98.435,25.423 L97.473,27.927 C97.434,28.037 97.499,28.093 97.675,28.093 L97.897,28.093 C98.159,28.093 98.379,28.026 98.553,27.896 C98.728,27.767 98.856,27.591 98.94,27.372 L99.311,26.408 C99.484,25.957 99.803,25.611 100.27,25.371 C100.733,25.132 101.289,25.011 101.934,25.011 L103.099,25.011 C103.288,25.011 103.428,25.038 103.521,25.085 C103.614,25.131 103.624,25.244 103.559,25.419 L103.299,26.091 C103.258,26.201 103.187,26.282 103.087,26.336 C102.986,26.39 102.856,26.418 102.696,26.418 L102.521,26.418 C102.289,26.418 102.133,26.528 102.047,26.75 L101.665,27.744 C101.606,27.897 101.525,28.045 101.416,28.189 C101.308,28.334 101.173,28.462 101.01,28.574 C100.941,28.602 100.838,28.643 100.705,28.698 C100.572,28.754 100.498,28.802 100.481,28.844 C100.814,28.967 101.082,29.144 101.286,29.371 C101.489,29.598 101.515,29.914 101.362,30.316 L100.385,32.863 C100.315,33.043 100.215,33.157 100.087,33.206 C99.957,33.254 99.797,33.277 99.605,33.277 L97.834,33.278 C97.64,33.278 97.5,33.255 97.407,33.204 C97.315,33.157 97.305,33.041 97.374,32.86 L98.205,30.691 C98.338,30.343 98.341,30.095 98.209,29.95 C98.079,29.806 97.853,29.73 97.538,29.73 L97.041,29.73 C96.94,29.73 96.864,29.75 96.817,29.785 C96.767,29.819 96.733,29.857 96.718,29.897 L95.581,32.86 C95.513,33.041 95.413,33.157 95.283,33.204 C95.154,33.255 94.995,33.278 94.804,33.278" id="Fill-8" fill="#FFFFFE"></path>
        <path d="M106.121,28.034 L105.282,30.223 C105.144,30.582 105.113,30.852 105.191,31.029 C105.331,31.347 105.751,31.504 106.452,31.504 L107.467,31.423 C107.575,31.408 107.714,31.39 107.881,31.368 C108.05,31.349 108.177,31.337 108.265,31.337 C108.424,31.337 108.52,31.366 108.552,31.419 C108.581,31.475 108.58,31.542 108.547,31.624 L108.094,32.813 C108.025,32.991 107.882,33.114 107.665,33.183 C107.287,33.29 106.57,33.346 105.514,33.346 C103.564,33.346 102.401,32.975 102.026,32.234 C101.827,31.833 101.895,31.202 102.226,30.337 L103.205,27.782 C103.537,26.919 104.022,26.265 104.659,25.826 C105.591,25.194 106.958,24.879 108.759,24.879 C109.815,24.879 110.487,24.939 110.776,25.064 C110.941,25.134 110.989,25.257 110.921,25.435 L110.463,26.63 C110.388,26.823 110.22,26.919 109.957,26.919 C109.709,26.919 109.426,26.892 109.104,26.835 C108.782,26.782 108.506,26.752 108.274,26.752 C107.601,26.752 107.08,26.896 106.706,27.187 C106.464,27.367 106.269,27.648 106.121,28.034" id="Fill-9" fill="#FFFFFE"></path>
        <path d="M114.052,26.886 L111.759,32.865 C111.69,33.044 111.591,33.157 111.462,33.206 C111.332,33.255 111.173,33.277 110.98,33.277 L109.21,33.278 C108.944,33.278 108.787,33.245 108.741,33.176 C108.694,33.106 108.695,33.004 108.748,32.865 L111.6,25.427 C111.67,25.247 111.768,25.134 111.898,25.086 C112.026,25.038 112.186,25.011 112.378,25.011 L119.171,25.011 C119.36,25.011 119.501,25.038 119.594,25.086 C119.686,25.134 119.698,25.247 119.628,25.427 L116.776,32.865 C116.707,33.044 116.608,33.157 116.481,33.206 C116.351,33.255 116.19,33.277 116,33.277 L114.225,33.278 C114.034,33.278 113.893,33.255 113.802,33.206 C113.708,33.157 113.698,33.044 113.766,32.865 L116.06,26.886 C116.102,26.774 116.057,26.72 115.926,26.72 L114.313,26.72 C114.239,26.72 114.182,26.736 114.139,26.771 C114.098,26.806 114.069,26.845 114.052,26.886" id="Fill-10" fill="#FFFFFE"></path>
        <path d="M128.592,25.909 C128.411,25.223 127.705,24.879 126.467,24.879 C125.979,24.879 125.543,24.934 125.154,25.044 C124.765,25.154 124.434,25.278 124.16,25.414 C124.031,25.401 123.978,25.368 123.999,25.313 L124.039,25.213 C124.09,25.081 123.983,25.013 123.721,25.013 L121.72,25.013 C121.529,25.013 121.371,25.038 121.242,25.086 C121.113,25.134 121.015,25.247 120.948,25.423 L117.297,34.944 C117.245,35.08 117.243,35.182 117.288,35.25 C117.336,35.319 117.495,35.352 117.759,35.352 L119.531,35.352 C119.722,35.352 119.881,35.328 120.012,35.282 C120.14,35.235 120.241,35.121 120.308,34.945 L121.036,33.047 C121.044,33.019 121.096,32.985 121.187,32.944 C121.421,33.05 121.663,33.152 121.906,33.245 C122.188,33.313 122.578,33.346 123.079,33.346 C124.311,33.346 125.291,33.032 126.017,32.4 C126.489,31.975 126.868,31.39 127.15,30.648 L128.297,27.659 C128.592,26.892 128.689,26.307 128.592,25.909 Z M125.249,27.659 L124.122,30.6 C124.029,30.846 123.9,31.048 123.741,31.198 C123.468,31.447 123.114,31.571 122.675,31.571 C122.236,31.571 121.976,31.447 121.898,31.198 C121.852,31.048 121.877,30.846 121.973,30.6 L123.1,27.659 C123.195,27.411 123.322,27.211 123.484,27.058 C123.755,26.811 124.108,26.685 124.549,26.685 C124.986,26.685 125.245,26.811 125.328,27.058 C125.372,27.211 125.347,27.411 125.249,27.659 L125.249,27.659 Z" id="Fill-11" fill="#FFFFFE"></path>
        <path d="M136.74,25.291 C136.198,25.014 135.426,24.879 134.427,24.879 C132.781,24.879 131.474,25.236 130.51,25.95 C129.869,26.431 129.396,27.07 129.09,27.867 L128.127,30.379 C127.676,31.561 127.971,32.399 129.015,32.892 C129.692,33.193 130.672,33.346 131.95,33.346 C132.346,33.346 132.801,33.33 133.314,33.294 C133.826,33.258 134.35,33.181 134.882,33.057 C135.073,33.016 135.205,32.972 135.275,32.923 C135.346,32.874 135.395,32.81 135.426,32.725 L135.878,31.551 C135.971,31.305 135.821,31.221 135.422,31.303 C134.957,31.404 134.527,31.479 134.126,31.53 C133.727,31.579 133.292,31.604 132.822,31.604 C132.146,31.604 131.661,31.497 131.365,31.281 C131.065,31.067 130.994,30.757 131.148,30.352 L131.35,29.83 C131.365,29.79 131.397,29.751 131.446,29.717 C131.498,29.681 131.573,29.665 131.677,29.665 L136.1,29.665 C136.291,29.665 136.452,29.637 136.583,29.582 C136.716,29.528 136.815,29.412 136.883,29.232 L137.41,27.858 C137.881,26.625 137.658,25.769 136.74,25.291 Z M134.514,27.555 L134.389,27.882 C134.294,27.978 134.204,28.025 134.116,28.025 L132.259,28.025 C132.114,28.025 132.059,27.978 132.095,27.882 L132.221,27.555 C132.356,27.205 132.557,26.942 132.827,26.773 C133.095,26.602 133.42,26.519 133.798,26.519 C134.249,26.519 134.517,26.652 134.603,26.925 C134.654,27.062 134.623,27.272 134.514,27.555 L134.514,27.555 Z" id="Fill-12" fill="#FFFFFE"></path>
        <path d="M141.451,28.034 L140.613,30.223 C140.475,30.582 140.444,30.852 140.521,31.029 C140.663,31.347 141.083,31.504 141.783,31.504 L142.799,31.423 C142.906,31.408 143.044,31.39 143.212,31.368 C143.38,31.349 143.509,31.337 143.597,31.337 C143.756,31.337 143.851,31.366 143.882,31.419 C143.912,31.475 143.912,31.542 143.879,31.624 L143.424,32.813 C143.357,32.991 143.215,33.114 142.996,33.183 C142.618,33.29 141.899,33.346 140.845,33.346 C138.896,33.346 137.733,32.975 137.361,32.234 C137.161,31.833 137.226,31.202 137.558,30.337 L138.536,27.782 C138.869,26.919 139.353,26.265 139.993,25.826 C140.922,25.194 142.289,24.879 144.091,24.879 C145.147,24.879 145.82,24.939 146.109,25.064 C146.274,25.134 146.322,25.257 146.253,25.435 L145.793,26.63 C145.72,26.823 145.552,26.919 145.289,26.919 C145.041,26.919 144.757,26.892 144.435,26.835 C144.116,26.782 143.838,26.752 143.605,26.752 C142.934,26.752 142.413,26.896 142.038,27.187 C141.796,27.367 141.598,27.648 141.451,28.034" id="Fill-13" fill="#FFFFFE"></path>
        <path d="M148.834,28.034 L147.994,30.223 C147.859,30.582 147.828,30.852 147.906,31.029 C148.046,31.347 148.466,31.504 149.166,31.504 L150.184,31.423 C150.289,31.408 150.429,31.39 150.595,31.368 C150.764,31.349 150.893,31.337 150.979,31.337 C151.14,31.337 151.236,31.366 151.266,31.419 C151.294,31.475 151.294,31.542 151.264,31.624 L150.808,32.813 C150.74,32.991 150.598,33.114 150.382,33.183 C150.002,33.29 149.283,33.346 148.23,33.346 C146.281,33.346 145.118,32.975 144.742,32.234 C144.544,31.833 144.611,31.202 144.941,30.337 L145.922,27.782 C146.253,26.919 146.737,26.265 147.375,25.826 C148.305,25.194 149.672,24.879 151.476,24.879 C152.53,24.879 153.203,24.939 153.492,25.064 C153.657,25.134 153.705,25.257 153.637,25.435 L153.177,26.63 C153.105,26.823 152.935,26.919 152.673,26.919 C152.426,26.919 152.141,26.892 151.82,26.835 C151.498,26.782 151.22,26.752 150.988,26.752 C150.317,26.752 149.795,26.896 149.425,27.187 C149.178,27.367 148.984,27.648 148.834,28.034" id="Fill-14" fill="#FFFFFE"></path>
        <path d="M0.535,69.678 C0.907,69.678 1.43,69.678 1.712,69.668 C1.905,69.655 2.301,69.655 2.437,69.655 C2.686,69.655 3.411,69.678 3.774,70.082 C4.079,70.407 4.147,70.867 4.147,71.076 C4.147,71.802 3.854,72.356 3.117,72.494 L3.117,72.518 C3.955,72.529 4.397,73.084 4.397,73.937 C4.397,74.283 4.272,75.103 3.491,75.471 C3.037,75.69 2.381,75.69 1.747,75.69 C1.553,75.69 0.807,75.69 0.58,75.702 L0.535,75.657 C0.547,75.333 0.557,74.884 0.557,74.11 C0.557,73.671 0.547,71.687 0.535,71.017 C0.522,70.336 0.499,70.015 0.49,69.725 L0.535,69.678 Z M2.664,72.056 C2.891,71.94 3.162,71.744 3.162,71.26 C3.162,70.591 2.744,70.464 2.199,70.464 C2.075,70.464 1.859,70.464 1.632,70.475 C1.632,71.098 1.632,71.698 1.632,72.172 C2.097,72.183 2.437,72.172 2.664,72.056 Z M3.332,73.89 C3.332,73.094 2.834,72.978 2.244,72.978 C2.052,72.978 1.712,72.99 1.632,72.99 C1.632,73.869 1.632,73.879 1.655,74.871 C2.652,74.905 3.332,74.79 3.332,73.89 L3.332,73.89 Z" id="Fill-15" fill="#18449A"></path>
        <path d="M12.063,74.594 C12.041,74.918 12.029,75.045 12.006,75.46 L11.939,75.553 C11.633,75.69 11.225,75.782 10.772,75.782 C10.455,75.782 10.127,75.748 9.821,75.623 C9.175,75.358 8.302,74.538 8.302,72.771 C8.302,70.878 9.232,69.563 10.84,69.563 C11.315,69.563 11.678,69.678 11.939,69.793 L11.995,69.875 C11.961,70.28 11.951,70.347 11.928,70.752 L11.859,70.787 C11.746,70.683 11.475,70.453 10.953,70.453 C9.719,70.453 9.469,71.814 9.469,72.724 C9.469,73.071 9.469,74.894 11.033,74.894 C11.508,74.894 11.814,74.686 11.995,74.56 L12.063,74.594" id="Fill-16" fill="#18449A"></path>
        <path d="M16.797,70.174 C17.533,70.948 17.567,72.228 17.567,72.771 C17.567,73.233 17.533,74.248 16.967,74.987 C16.4,75.715 15.642,75.807 15.2,75.807 C14.555,75.807 13.932,75.563 13.514,75.055 C12.89,74.308 12.867,73.163 12.867,72.692 C12.867,72.275 12.879,71.017 13.603,70.232 C14.158,69.633 14.861,69.563 15.278,69.563 C15.55,69.563 16.242,69.587 16.797,70.174 Z M16.027,70.833 C15.903,70.625 15.676,70.372 15.223,70.372 C14.193,70.372 14.045,71.734 14.045,72.621 C14.045,73.084 14.079,73.416 14.125,73.66 C14.293,74.652 14.702,74.987 15.235,74.987 C15.788,74.987 15.992,74.619 16.072,74.456 C16.332,73.983 16.389,73.325 16.389,72.771 C16.389,72.183 16.344,71.364 16.027,70.833 L16.027,70.833 Z" id="Fill-17" fill="#18449A"></path>
        <path d="M22.391,74.594 C22.368,74.918 22.358,75.045 22.334,75.46 L22.266,75.553 C21.96,75.69 21.553,75.782 21.1,75.782 C20.783,75.782 20.455,75.748 20.149,75.623 C19.504,75.358 18.631,74.538 18.631,72.771 C18.631,70.878 19.56,69.563 21.168,69.563 C21.643,69.563 22.006,69.678 22.266,69.793 L22.323,69.875 C22.289,70.28 22.279,70.347 22.256,70.752 L22.187,70.787 C22.073,70.683 21.801,70.453 21.28,70.453 C20.047,70.453 19.797,71.814 19.797,72.724 C19.797,73.071 19.797,74.894 21.361,74.894 C21.836,74.894 22.141,74.686 22.323,74.56 L22.391,74.594" id="Fill-18" fill="#18449A"></path>
        <path d="M26.592,70.567 C26.287,70.556 25.754,70.532 25.155,70.532 C25.155,71.179 25.155,72.091 25.166,72.852 C25.178,73.948 25.189,74.191 25.245,75.623 L25.178,75.68 C24.668,75.68 24.576,75.68 24.113,75.702 L24.055,75.644 C24.067,75.125 24.067,74.884 24.067,74.121 L24.067,70.532 C23.523,70.532 22.798,70.556 22.493,70.579 L22.436,70.51 C22.471,70.22 22.493,69.967 22.503,69.75 L22.572,69.678 C22.867,69.702 23.785,69.702 24.055,69.702 L25.155,69.714 C25.664,69.714 26.298,69.69 26.65,69.678 L26.717,69.76 C26.683,70.106 26.683,70.199 26.672,70.499 L26.592,70.567" id="Fill-19" fill="#18449A"></path>
        <path d="M30.001,75.241 C29.752,75.448 29.344,75.771 28.654,75.771 C27.635,75.771 27.035,74.952 27.035,73.961 C27.035,72.218 28.641,71.861 29.491,71.698 L29.99,71.606 C29.99,70.971 29.99,70.407 28.994,70.407 C28.258,70.407 27.85,70.673 27.601,70.844 L27.521,70.8 C27.556,70.453 27.556,70.372 27.567,69.99 L27.623,69.909 C28.166,69.655 28.811,69.563 29.289,69.563 C29.684,69.563 30.488,69.597 30.873,70.301 C31.088,70.706 31.066,71.122 31.066,72.033 L31.066,73.233 C31.066,74.34 31.066,74.825 31.133,75.609 L31.066,75.68 C30.591,75.68 30.511,75.68 30.08,75.702 L30.012,75.634 L30.001,75.241 Z M29.99,72.345 C29.242,72.506 29.061,72.553 28.801,72.679 C28.166,73.003 28.099,73.51 28.099,73.856 C28.099,74.594 28.574,74.905 29.027,74.905 C29.514,74.905 29.831,74.606 29.99,74.456 L29.99,72.345 L29.99,72.345 Z" id="Fill-20" fill="#18449A"></path>
        <path d="M32.583,69.678 C32.957,69.678 33.478,69.678 33.761,69.668 C33.953,69.655 34.351,69.655 34.486,69.655 C34.736,69.655 35.459,69.678 35.822,70.082 C36.128,70.407 36.197,70.867 36.197,71.076 C36.197,71.802 35.901,72.356 35.166,72.494 L35.166,72.518 C36.003,72.529 36.444,73.084 36.444,73.937 C36.444,74.283 36.32,75.103 35.539,75.471 C35.086,75.69 34.43,75.69 33.795,75.69 C33.603,75.69 32.855,75.69 32.629,75.702 L32.583,75.657 C32.595,75.333 32.607,74.884 32.607,74.11 C32.607,73.671 32.595,71.687 32.583,71.017 C32.572,70.336 32.549,70.015 32.537,69.725 L32.583,69.678 Z M34.713,72.056 C34.939,71.94 35.209,71.744 35.209,71.26 C35.209,70.591 34.792,70.464 34.248,70.464 C34.123,70.464 33.908,70.464 33.682,70.475 C33.682,71.098 33.682,71.698 33.682,72.172 C34.146,72.183 34.486,72.172 34.713,72.056 Z M35.381,73.89 C35.381,73.094 34.881,72.978 34.293,72.978 C34.101,72.978 33.761,72.99 33.682,72.99 C33.682,73.869 33.682,73.879 33.705,74.871 C34.701,74.905 35.381,74.79 35.381,73.89 L35.381,73.89 Z" id="Fill-21" fill="#18449A"></path>
        <path d="M38.529,72.771 C38.529,73.211 38.564,73.625 38.744,74.017 C39.163,74.941 40.035,74.941 40.228,74.941 C40.873,74.941 41.246,74.665 41.451,74.513 L41.53,74.548 C41.496,74.93 41.496,75.022 41.473,75.39 L41.416,75.483 C41.338,75.528 41.201,75.609 40.953,75.68 C40.601,75.782 40.216,75.807 39.967,75.807 C39.469,75.807 38.664,75.737 38.053,74.965 C37.556,74.329 37.418,73.498 37.418,72.679 C37.418,70.532 38.449,69.92 38.801,69.75 C39.072,69.622 39.378,69.563 39.683,69.563 C39.99,69.563 40.285,69.622 40.545,69.75 C41.666,70.29 41.734,71.641 41.711,72.702 L41.632,72.771 L38.529,72.771 Z M40.613,71.999 C40.613,71.779 40.613,71.547 40.556,71.282 C40.386,70.453 39.831,70.359 39.64,70.359 C39.514,70.359 39.185,70.383 38.902,70.8 C38.63,71.203 38.574,71.709 38.552,71.999 L40.613,71.999 L40.613,71.999 Z" id="Fill-22" fill="#18449A"></path>
        <path d="M46.863,75.742 L47.456,73.664 L49.884,73.664 L50.451,75.742 L52.689,75.742 L50.451,67.813 L50.342,67.511 L50.153,67.266 L49.91,67.13 L49.586,67.102 L46.404,67.102 L46.404,67.868 L46.675,67.868 L46.89,67.895 L47.051,67.949 L47.159,68.086 L47.186,68.25 L47.159,68.523 L47.024,68.933 L44.786,75.742 L46.863,75.742 Z M49.586,72.243 L47.78,72.243 L48.724,69.07 L49.586,72.243 L49.586,72.243 Z" id="Fill-23" fill="#18449A"></path>
        <polyline id="Fill-24" fill="#18449A" points="55.282 75.742 55.282 67.785 55.226 67.511 55.09 67.266 54.9 67.156 54.632 67.102 52.662 67.102 52.662 67.868 52.797 67.868 53.013 67.895 53.147 67.977 53.256 68.113 53.282 68.331 53.282 75.742 55.282 75.742"></polyline>
        <polyline id="Fill-25" fill="#18449A" points="58.678 75.742 58.678 67.785 58.624 67.511 58.489 67.266 58.302 67.156 58.031 67.102 56.088 67.102 56.088 67.868 56.198 67.868 56.413 67.895 56.546 67.977 56.627 68.113 56.654 68.331 56.654 75.742 58.678 75.742"></polyline>
        <path d="M62.103,75.742 L62.103,69.944 L62.049,69.673 L61.942,69.454 L61.726,69.316 L61.483,69.289 L59.542,69.289 L59.542,69.998 L59.647,69.998 L59.893,70.026 L60.026,70.136 L60.082,70.272 L60.134,70.492 L60.134,75.742 L62.103,75.742 Z M62.156,67.895 L62.156,67.703 L62.049,67.511 L61.969,67.347 L61.834,67.21 L61.673,67.102 L61.483,67.019 L61.268,66.964 L60.998,66.964 L60.538,67.019 L60.353,67.102 L60.189,67.21 L60.053,67.347 L59.918,67.511 L59.893,67.703 L59.867,67.895 L59.893,68.113 L59.918,68.277 L60.053,68.44 L60.189,68.577 L60.353,68.688 L60.538,68.769 L60.752,68.798 L60.998,68.824 L61.483,68.769 L61.673,68.688 L61.834,68.577 L61.969,68.44 L62.049,68.277 L62.156,68.113 L62.156,67.895 L62.156,67.895 Z" id="Fill-26" fill="#18449A"></path>
        <path d="M63.804,71.095 L64.314,70.902 L64.829,70.737 L65.314,70.629 L65.772,70.6 L66.094,70.656 L66.31,70.764 L66.448,71.01 L66.474,71.394 L66.474,71.53 L64.963,71.804 L64.207,72.052 L63.912,72.188 L63.669,72.351 L63.478,72.543 L63.318,72.762 L63.183,73.035 L63.102,73.308 L63.048,73.636 L63.022,73.966 L63.048,74.402 L63.131,74.785 L63.237,75.113 L63.426,75.36 L63.641,75.55 L63.912,75.686 L64.236,75.769 L64.639,75.796 L65.205,75.742 L65.692,75.606 L66.068,75.386 L66.529,75.058 L66.529,75.141 L66.608,75.386 L66.69,75.577 L66.905,75.686 L67.148,75.742 L68.957,75.742 L68.957,75.058 L68.9,75.058 L68.658,75.032 L68.497,74.92 L68.417,74.757 L68.388,74.456 L68.388,71.394 L68.363,70.82 L68.282,70.354 L68.147,69.972 L67.932,69.673 L67.634,69.454 L67.256,69.316 L66.797,69.181 L66.232,69.152 L65.448,69.208 L64.718,69.343 L64.073,69.563 L63.346,69.89 L63.804,71.095 Z M66.474,72.625 L66.474,73.881 L66.232,74.129 L65.934,74.292 L65.663,74.402 L65.393,74.429 L65.178,74.402 L65.042,74.292 L64.963,74.075 L64.934,73.772 L64.963,73.472 L65.017,73.254 L65.153,73.062 L65.393,72.927 L65.853,72.762 L66.474,72.625 L66.474,72.625 Z" id="Fill-27" fill="#18449A"></path>
        <polyline id="Fill-28" fill="#18449A" points="71.87 75.742 71.87 71.368 72.113 71.12 72.38 70.929 72.652 70.848 72.919 70.82 73.19 70.848 73.27 70.902 73.378 70.984 73.434 71.257 73.434 75.742 75.429 75.742 75.429 71.338 75.404 70.683 75.348 70.246 75.242 69.918 75.053 69.644 74.809 69.454 74.539 69.316 74.215 69.208 73.864 69.181 73.297 69.234 72.814 69.424 72.328 69.698 71.789 70.136 71.789 69.89 71.762 69.616 71.653 69.424 71.463 69.316 71.195 69.289 69.308 69.289 69.308 69.998 69.414 69.998 69.632 70.026 69.763 70.136 69.847 70.272 69.873 70.492 69.873 75.742 71.87 75.742"></polyline>
        <polyline id="Fill-29" fill="#18449A" points="81.338 74.375 78.558 74.375 81.203 70.6 81.203 69.289 77.048 69.289 76.749 69.316 76.534 69.454 76.429 69.673 76.373 69.972 76.373 71.12 77.1 71.12 77.1 71.01 77.129 70.82 77.209 70.683 77.372 70.6 77.56 70.575 79.015 70.575 76.347 74.402 76.347 75.742 81.338 75.742 81.338 74.375"></polyline>
        <path d="M90.509,78.476 L90.176,78.448 L89.501,78.367 L88.856,78.176 L88.261,77.984 L87.696,77.711 L87.156,77.382 L86.644,77.027 L86.185,76.616 L85.781,76.124 L85.43,75.634 L85.106,75.085 L84.809,74.483 L84.621,73.881 L84.457,73.228 L84.351,72.543 L84.321,71.861 L84.351,71.148 L84.457,70.492 L84.621,69.836 L84.809,69.208 L85.106,68.631 L85.43,68.086 L85.781,67.565 L86.185,67.102 L86.644,66.691 L87.156,66.337 L87.696,66.008 L88.261,65.735 L88.856,65.514 L89.501,65.351 L90.176,65.243 L90.851,65.216 L91.524,65.243 L92.202,65.351 L92.846,65.514 L93.441,65.735 L94.034,66.008 L94.546,66.337 L95.061,66.691 L95.519,67.102 L95.949,67.565 L96.301,68.086 L96.625,68.631 L96.896,69.208 L97.083,69.836 L97.245,70.539 L97.358,72.623 L97.246,73.228 L97.083,73.881 L96.896,74.483 L96.625,75.085 L96.301,75.634 L95.949,76.124 L95.519,76.616 L95.061,77.027 L94.546,77.382 L94.034,77.711 L93.441,77.984 L92.846,78.176 L92.202,78.367 L91.524,78.448 L91.145,78.476 L90.509,78.476 Z M96.272,71.861 L96.246,72.435 L96.141,73.035 L96.057,73.582 L95.842,74.075 L95.626,74.567 L95.383,75.032 L95.086,75.468 L94.736,75.85 L94.357,76.18 L93.955,76.535 L93.495,76.781 L93.012,77.001 L92.526,77.19 L91.983,77.328 L91.416,77.382 L90.851,77.41 L90.286,77.382 L89.746,77.328 L89.205,77.19 L88.695,77.001 L88.209,76.781 L87.776,76.535 L87.371,76.18 L86.967,75.85 L86.616,75.468 L86.32,75.032 L86.076,74.567 L85.861,74.075 L85.671,73.582 L85.566,73.035 L85.482,72.435 L85.456,71.861 L85.482,71.284 L85.566,70.683 L85.671,70.136 L85.861,69.644 L86.076,69.125 L86.32,68.688 L86.616,68.25 L86.967,67.868 L87.371,67.538 L87.776,67.183 L88.209,66.937 L88.695,66.717 L89.205,66.526 L89.746,66.391 L90.286,66.337 L90.851,66.309 L91.416,66.337 L91.983,66.391 L92.526,66.526 L93.012,66.717 L93.495,66.937 L93.955,67.183 L94.357,67.538 L94.736,67.868 L95.086,68.25 L95.383,68.688 L95.626,69.125 L95.842,69.644 L96.057,70.164 L96.141,70.683 L96.246,71.284 L96.272,71.861 Z M89.071,75.577 L89.071,69.097 L87.992,69.097 L87.642,69.125 L87.398,69.289 L87.319,69.371 L87.262,69.536 L87.236,69.89 L87.236,75.577 L89.071,75.577 Z M92.631,75.577 L94.493,75.577 L94.493,69.89 L94.466,69.536 L94.331,69.289 L94.222,69.181 L94.09,69.125 L93.712,69.097 L92.631,69.097 L92.631,75.577 Z M91.796,75.577 L91.796,68.25 L91.767,67.895 L91.688,67.758 L91.636,67.676 L91.496,67.565 L91.392,67.538 L91.015,67.457 L89.366,67.457 L89.366,68.304 L89.476,68.304 L89.691,68.331 L89.825,68.415 L89.909,68.577 L89.909,75.577 L91.796,75.577 L91.796,75.577 Z" id="Fill-30" fill="#18449A"></path>
        <path d="M0.535,69.678 C0.907,69.678 1.43,69.678 1.712,69.668 C1.905,69.655 2.301,69.655 2.437,69.655 C2.686,69.655 3.411,69.678 3.774,70.082 C4.079,70.407 4.147,70.867 4.147,71.076 C4.147,71.802 3.854,72.356 3.117,72.494 L3.117,72.518 C3.955,72.529 4.397,73.084 4.397,73.937 C4.397,74.283 4.272,75.103 3.491,75.471 C3.037,75.69 2.381,75.69 1.747,75.69 C1.553,75.69 0.807,75.69 0.58,75.702 L0.535,75.657 C0.547,75.333 0.557,74.884 0.557,74.11 C0.557,73.671 0.547,71.687 0.535,71.017 C0.522,70.336 0.499,70.015 0.49,69.725 L0.535,69.678 Z M2.664,72.056 C2.891,71.94 3.162,71.744 3.162,71.26 C3.162,70.591 2.744,70.464 2.199,70.464 C2.075,70.464 1.859,70.464 1.632,70.475 C1.632,71.098 1.632,71.698 1.632,72.172 C2.097,72.183 2.437,72.172 2.664,72.056 Z M3.332,73.89 C3.332,73.094 2.834,72.978 2.244,72.978 C2.052,72.978 1.712,72.99 1.632,72.99 C1.632,73.869 1.632,73.879 1.655,74.871 C2.652,74.905 3.332,74.79 3.332,73.89 L3.332,73.89 Z" id="Fill-31" fill="#18449A"></path>
        <path d="M12.063,74.594 C12.041,74.918 12.029,75.045 12.006,75.46 L11.939,75.553 C11.633,75.69 11.225,75.782 10.772,75.782 C10.455,75.782 10.127,75.748 9.821,75.623 C9.175,75.358 8.302,74.538 8.302,72.771 C8.302,70.878 9.232,69.563 10.84,69.563 C11.315,69.563 11.678,69.678 11.939,69.793 L11.995,69.875 C11.961,70.28 11.951,70.347 11.928,70.752 L11.859,70.787 C11.746,70.683 11.475,70.453 10.953,70.453 C9.719,70.453 9.469,71.814 9.469,72.724 C9.469,73.071 9.469,74.894 11.033,74.894 C11.508,74.894 11.814,74.686 11.995,74.56 L12.063,74.594" id="Fill-32" fill="#18449A"></path>
        <path d="M16.797,70.174 C17.533,70.948 17.567,72.228 17.567,72.771 C17.567,73.233 17.533,74.248 16.967,74.987 C16.4,75.715 15.642,75.807 15.2,75.807 C14.555,75.807 13.932,75.563 13.514,75.055 C12.89,74.308 12.867,73.163 12.867,72.692 C12.867,72.275 12.879,71.017 13.603,70.232 C14.158,69.633 14.861,69.563 15.278,69.563 C15.55,69.563 16.242,69.587 16.797,70.174 Z M16.027,70.833 C15.903,70.625 15.676,70.372 15.223,70.372 C14.193,70.372 14.045,71.734 14.045,72.621 C14.045,73.084 14.079,73.416 14.125,73.66 C14.293,74.652 14.702,74.987 15.235,74.987 C15.788,74.987 15.992,74.619 16.072,74.456 C16.332,73.983 16.389,73.325 16.389,72.771 C16.389,72.183 16.344,71.364 16.027,70.833 L16.027,70.833 Z" id="Fill-33" fill="#18449A"></path>
        <path d="M22.391,74.594 C22.368,74.918 22.358,75.045 22.334,75.46 L22.266,75.553 C21.96,75.69 21.553,75.782 21.1,75.782 C20.783,75.782 20.455,75.748 20.149,75.623 C19.504,75.358 18.631,74.538 18.631,72.771 C18.631,70.878 19.56,69.563 21.168,69.563 C21.643,69.563 22.006,69.678 22.266,69.793 L22.323,69.875 C22.289,70.28 22.279,70.347 22.256,70.752 L22.187,70.787 C22.073,70.683 21.801,70.453 21.28,70.453 C20.047,70.453 19.797,71.814 19.797,72.724 C19.797,73.071 19.797,74.894 21.361,74.894 C21.836,74.894 22.141,74.686 22.323,74.56 L22.391,74.594" id="Fill-34" fill="#18449A"></path>
        <path d="M26.592,70.567 C26.287,70.556 25.754,70.532 25.155,70.532 C25.155,71.179 25.155,72.091 25.166,72.852 C25.178,73.948 25.189,74.191 25.245,75.623 L25.178,75.68 C24.668,75.68 24.576,75.68 24.113,75.702 L24.055,75.644 C24.067,75.125 24.067,74.884 24.067,74.121 L24.067,70.532 C23.523,70.532 22.798,70.556 22.493,70.579 L22.436,70.51 C22.471,70.22 22.493,69.967 22.503,69.75 L22.572,69.678 C22.867,69.702 23.785,69.702 24.055,69.702 L25.155,69.714 C25.664,69.714 26.298,69.69 26.65,69.678 L26.717,69.76 C26.683,70.106 26.683,70.199 26.672,70.499 L26.592,70.567" id="Fill-35" fill="#18449A"></path>
        <path d="M30.001,75.241 C29.752,75.448 29.344,75.771 28.654,75.771 C27.635,75.771 27.035,74.952 27.035,73.961 C27.035,72.218 28.641,71.861 29.491,71.698 L29.99,71.606 C29.99,70.971 29.99,70.407 28.994,70.407 C28.258,70.407 27.85,70.673 27.601,70.844 L27.521,70.8 C27.556,70.453 27.556,70.372 27.567,69.99 L27.623,69.909 C28.166,69.655 28.811,69.563 29.289,69.563 C29.684,69.563 30.488,69.597 30.873,70.301 C31.088,70.706 31.066,71.122 31.066,72.033 L31.066,73.233 C31.066,74.34 31.066,74.825 31.133,75.609 L31.066,75.68 C30.591,75.68 30.511,75.68 30.08,75.702 L30.012,75.634 L30.001,75.241 Z M29.99,72.345 C29.242,72.506 29.061,72.553 28.801,72.679 C28.166,73.003 28.099,73.51 28.099,73.856 C28.099,74.594 28.574,74.905 29.027,74.905 C29.514,74.905 29.831,74.606 29.99,74.456 L29.99,72.345 L29.99,72.345 Z" id="Fill-36" fill="#18449A"></path>
        <path d="M32.583,69.678 C32.957,69.678 33.478,69.678 33.761,69.668 C33.953,69.655 34.351,69.655 34.486,69.655 C34.736,69.655 35.459,69.678 35.822,70.082 C36.128,70.407 36.197,70.867 36.197,71.076 C36.197,71.802 35.901,72.356 35.166,72.494 L35.166,72.518 C36.003,72.529 36.444,73.084 36.444,73.937 C36.444,74.283 36.32,75.103 35.539,75.471 C35.086,75.69 34.43,75.69 33.795,75.69 C33.603,75.69 32.855,75.69 32.629,75.702 L32.583,75.657 C32.595,75.333 32.607,74.884 32.607,74.11 C32.607,73.671 32.595,71.687 32.583,71.017 C32.572,70.336 32.549,70.015 32.537,69.725 L32.583,69.678 Z M34.713,72.056 C34.939,71.94 35.209,71.744 35.209,71.26 C35.209,70.591 34.792,70.464 34.248,70.464 C34.123,70.464 33.908,70.464 33.682,70.475 C33.682,71.098 33.682,71.698 33.682,72.172 C34.146,72.183 34.486,72.172 34.713,72.056 Z M35.381,73.89 C35.381,73.094 34.881,72.978 34.293,72.978 C34.101,72.978 33.761,72.99 33.682,72.99 C33.682,73.869 33.682,73.879 33.705,74.871 C34.701,74.905 35.381,74.79 35.381,73.89 L35.381,73.89 Z" id="Fill-37" fill="#18449A"></path>
        <path d="M38.529,72.771 C38.529,73.211 38.564,73.625 38.744,74.017 C39.163,74.941 40.035,74.941 40.228,74.941 C40.873,74.941 41.246,74.665 41.451,74.513 L41.53,74.548 C41.496,74.93 41.496,75.022 41.473,75.39 L41.416,75.483 C41.338,75.528 41.201,75.609 40.953,75.68 C40.601,75.782 40.216,75.807 39.967,75.807 C39.469,75.807 38.664,75.737 38.053,74.965 C37.556,74.329 37.418,73.498 37.418,72.679 C37.418,70.532 38.449,69.92 38.801,69.75 C39.072,69.622 39.378,69.563 39.683,69.563 C39.99,69.563 40.285,69.622 40.545,69.75 C41.666,70.29 41.734,71.641 41.711,72.702 L41.632,72.771 L38.529,72.771 Z M40.613,71.999 C40.613,71.779 40.613,71.547 40.556,71.282 C40.386,70.453 39.831,70.359 39.64,70.359 C39.514,70.359 39.185,70.383 38.902,70.8 C38.63,71.203 38.574,71.709 38.552,71.999 L40.613,71.999 L40.613,71.999 Z" id="Fill-38" fill="#18449A"></path>
        <path d="M46.863,75.742 L47.456,73.664 L49.884,73.664 L50.451,75.742 L52.689,75.742 L50.451,67.813 L50.342,67.511 L50.153,67.266 L49.91,67.13 L49.586,67.102 L46.404,67.102 L46.404,67.868 L46.675,67.868 L46.89,67.895 L47.051,67.949 L47.159,68.086 L47.186,68.25 L47.159,68.523 L47.024,68.933 L44.786,75.742 L46.863,75.742 Z M49.586,72.243 L47.78,72.243 L48.724,69.07 L49.586,72.243 L49.586,72.243 Z" id="Fill-39" fill="#18449A"></path>
        <polyline id="Fill-40" fill="#18449A" points="55.282 75.742 55.282 67.785 55.226 67.511 55.09 67.266 54.9 67.156 54.632 67.102 52.662 67.102 52.662 67.868 52.797 67.868 53.013 67.895 53.147 67.977 53.256 68.113 53.282 68.331 53.282 75.742 55.282 75.742"></polyline>
        <polyline id="Fill-41" fill="#18449A" points="58.678 75.742 58.678 67.785 58.624 67.511 58.489 67.266 58.302 67.156 58.031 67.102 56.088 67.102 56.088 67.868 56.198 67.868 56.413 67.895 56.546 67.977 56.627 68.113 56.654 68.331 56.654 75.742 58.678 75.742"></polyline>
        <path d="M62.103,75.742 L62.103,69.944 L62.049,69.673 L61.942,69.454 L61.726,69.316 L61.483,69.289 L59.542,69.289 L59.542,69.998 L59.647,69.998 L59.893,70.026 L60.026,70.136 L60.082,70.272 L60.134,70.492 L60.134,75.742 L62.103,75.742 Z M62.156,67.895 L62.156,67.703 L62.049,67.511 L61.969,67.347 L61.834,67.21 L61.673,67.102 L61.483,67.019 L61.268,66.964 L60.998,66.964 L60.538,67.019 L60.353,67.102 L60.189,67.21 L60.053,67.347 L59.918,67.511 L59.893,67.703 L59.867,67.895 L59.893,68.113 L59.918,68.277 L60.053,68.44 L60.189,68.577 L60.353,68.688 L60.538,68.769 L60.752,68.798 L60.998,68.824 L61.483,68.769 L61.673,68.688 L61.834,68.577 L61.969,68.44 L62.049,68.277 L62.156,68.113 L62.156,67.895 L62.156,67.895 Z" id="Fill-42" fill="#18449A"></path>
        <path d="M63.804,71.095 L64.314,70.902 L64.829,70.737 L65.314,70.629 L65.772,70.6 L66.094,70.656 L66.31,70.764 L66.448,71.01 L66.474,71.394 L66.474,71.53 L64.963,71.804 L64.207,72.052 L63.912,72.188 L63.669,72.351 L63.478,72.543 L63.318,72.762 L63.183,73.035 L63.102,73.308 L63.048,73.636 L63.022,73.966 L63.048,74.402 L63.131,74.785 L63.237,75.113 L63.426,75.36 L63.641,75.55 L63.912,75.686 L64.236,75.769 L64.639,75.796 L65.205,75.742 L65.692,75.606 L66.068,75.386 L66.529,75.058 L66.529,75.141 L66.608,75.386 L66.69,75.577 L66.905,75.686 L67.148,75.742 L68.957,75.742 L68.957,75.058 L68.9,75.058 L68.658,75.032 L68.497,74.92 L68.417,74.757 L68.388,74.456 L68.388,71.394 L68.363,70.82 L68.282,70.354 L68.147,69.972 L67.932,69.673 L67.634,69.454 L67.256,69.316 L66.797,69.181 L66.232,69.152 L65.448,69.208 L64.718,69.343 L64.073,69.563 L63.346,69.89 L63.804,71.095 Z M66.474,72.625 L66.474,73.881 L66.232,74.129 L65.934,74.292 L65.663,74.402 L65.393,74.429 L65.178,74.402 L65.042,74.292 L64.963,74.075 L64.934,73.772 L64.963,73.472 L65.017,73.254 L65.153,73.062 L65.393,72.927 L65.853,72.762 L66.474,72.625 L66.474,72.625 Z" id="Fill-43" fill="#18449A"></path>
        <polyline id="Fill-44" fill="#18449A" points="71.87 75.742 71.87 71.368 72.113 71.12 72.38 70.929 72.652 70.848 72.919 70.82 73.19 70.848 73.27 70.902 73.378 70.984 73.434 71.257 73.434 75.742 75.429 75.742 75.429 71.338 75.404 70.683 75.348 70.246 75.242 69.918 75.053 69.644 74.809 69.454 74.539 69.316 74.215 69.208 73.864 69.181 73.297 69.234 72.814 69.424 72.328 69.698 71.789 70.136 71.789 69.89 71.762 69.616 71.653 69.424 71.463 69.316 71.195 69.289 69.308 69.289 69.308 69.998 69.414 69.998 69.632 70.026 69.763 70.136 69.847 70.272 69.873 70.492 69.873 75.742 71.87 75.742"></polyline>
        <polyline id="Fill-45" fill="#18449A" points="81.338 74.375 78.558 74.375 81.203 70.6 81.203 69.289 77.048 69.289 76.749 69.316 76.534 69.454 76.429 69.673 76.373 69.972 76.373 71.12 77.1 71.12 77.1 71.01 77.129 70.82 77.209 70.683 77.372 70.6 77.56 70.575 79.015 70.575 76.347 74.402 76.347 75.742 81.338 75.742 81.338 74.375"></polyline>
        <polyline id="Fill-46" fill="#18449A" points="91.75 75.576 91.75 68.25 91.721 67.895 91.641 67.758 91.589 67.676 91.45 67.565 91.345 67.538 90.968 67.457 89.319 67.457 89.319 68.303 89.43 68.303 89.644 68.331 89.779 68.415 89.863 68.577 89.863 75.576 91.75 75.576"></polyline>
    </g>
</svg>