<?xml version="1.0" encoding="UTF-8"?>
<svg width="326px" height="326px" viewBox="0 0 326 326" version="1.1" xmlns="http://www.w3.org/2000/svg" xmlns:xlink="http://www.w3.org/1999/xlink">
    <!-- Generator: Sketch 59.1 (86144) - https://sketch.com -->
    <title>paste-blue</title>
    <desc>Created with Sketch.</desc>
    <g id="Page-1" stroke="none" stroke-width="1" fill="none" fill-rule="evenodd">
        <g id="paste-blue" fill="#428BCA" fill-rule="nonzero">
            <path d="M301.656,56 L269.656,24 L245.656,0 L234.344,11.312 L252.688,29.656 L176.000006,106.344 L173.656,104 L157.656,88 L146.344,99.312 L156.688,109.656 L26.344,240 C23.221,243.124 23.221,248.188 26.344,251.312 L29.704,254.672 L1.344,297.216 C-0.772,300.389 -0.353,304.615 2.344,307.312 L18.344,323.312 C21.041,326.009 25.267,326.428 28.44,324.312 L70.984,295.952 L74.344,299.312 C77.468,302.435 82.532,302.435 85.656,299.312 L216.000006,168.968 L226.344,179.312 L237.656,168 L221.656,152 L219.312,149.656 L296.000006,72.968 L314.344,91.312 L325.656,80 L301.656,56 Z M25.04,307.36 L18.32,300.64 L41.264,266.24 L59.44,284.416 L25.04,307.36 Z M80,282.344 L77.656,280 L45.656,248 L43.312,245.656 L104,184.968 L140.688,221.656 L80,282.344 Z M152,210.344 L115.312,173.656 L168,120.968 L170.344,123.312 L202.344,155.312 L204.688,157.656 L152,210.344 Z M208,138.344 L187.312,117.656 L264,40.968 L284.688,61.656 L208,138.344 Z" id="Shape"></path>
        </g>
    </g>
</svg>