<?xml version="1.0" encoding="UTF-8"?>
<svg width="512px" height="384px" viewBox="0 0 512 384" version="1.1" xmlns="http://www.w3.org/2000/svg" xmlns:xlink="http://www.w3.org/1999/xlink">
    <!-- Generator: Sketch 59.1 (86144) - https://sketch.com -->
    <title>laser</title>
    <desc>Created with Sketch.</desc>
    <g id="Page-1" stroke="none" stroke-width="1" fill="none" fill-rule="evenodd">
        <g id="laser" fill="#5896fd" fill-rule="nonzero">
            <path d="M501.333,181.333 L245.63,181.333 L304.479,156.948 C309.917,154.698 312.5,148.448 310.25,143.01 C307.979,137.552 301.708,134.989 296.312,137.239 L237.455,161.628 L327.77,71.322 C331.937,67.155 331.937,60.405 327.77,56.239 C323.603,52.072 316.853,52.072 312.687,56.239 L222.381,146.535 L246.749,87.677 C248.999,82.229 246.416,75.989 240.978,73.739 C235.54,71.499 229.311,74.083 227.04,79.51 L202.665,138.385 L202.665,10.667 C202.667,4.771 197.896,0 192,0 C186.104,0 181.333,4.771 181.333,10.667 L181.333,138.386 L156.958,79.511 C154.708,74.084 148.52,71.511 143.02,73.74 C137.582,75.99 134.999,82.23 137.249,87.678 L161.617,146.536 L71.313,56.24 C67.146,52.073 60.396,52.073 56.23,56.24 C52.063,60.407 52.063,67.157 56.23,71.323 L146.545,161.629 L87.688,137.24 C82.271,134.99 76.021,137.553 73.75,143.011 C71.5,148.449 74.083,154.699 79.521,156.949 L138.37,181.334 L10.667,181.334 C4.771,181.333 0,186.104 0,192 C0,197.896 4.771,202.667 10.667,202.667 L138.37,202.667 L79.521,227.052 C74.083,229.302 71.5,235.552 73.75,240.99 C75.458,245.094 79.417,247.573 83.604,247.573 C84.979,247.573 86.354,247.313 87.687,246.76 L146.544,222.371 L56.229,312.677 C52.062,316.844 52.062,323.594 56.229,327.76 C58.312,329.843 61.042,330.885 63.771,330.885 C66.5,330.885 69.229,329.843 71.313,327.76 L161.619,237.464 L137.251,296.322 C135.001,301.77 137.584,308.01 143.022,310.26 C144.355,310.812 145.751,311.073 147.105,311.073 C151.293,311.073 155.251,308.594 156.959,304.49 L181.334,245.615 L181.334,373.334 C181.334,379.23 186.105,384.001 192.001,384.001 C197.897,384.001 202.668,379.23 202.668,373.334 L202.668,245.615 L227.043,304.49 C228.751,308.594 232.71,311.073 236.897,311.073 C238.251,311.073 239.647,310.813 240.98,310.26 C246.418,308.01 249.001,301.77 246.751,296.322 L222.383,237.464 L312.689,327.76 C314.772,329.843 317.502,330.885 320.231,330.885 C322.96,330.885 325.689,329.843 327.773,327.76 C331.94,323.593 331.94,316.843 327.773,312.677 L237.458,222.371 L296.315,246.76 C297.648,247.312 299.023,247.573 300.398,247.573 C304.586,247.573 308.544,245.094 310.252,240.99 C312.502,235.552 309.919,229.302 304.481,227.052 L245.632,202.667 L501.335,202.667 C507.231,202.667 512.002,197.896 512.002,192 C512.002,186.104 507.229,181.333 501.333,181.333 Z M192,213.333 C199.798,213.333 206.333,208.924 210.055,202.666 L222.035,202.666 C217.617,215.056 205.888,224 192,224 C174.354,224 160,209.646 160,192 C160,174.354 174.354,160 192,160 C205.888,160 217.617,168.944 222.035,181.333 L210.055,181.333 C206.334,175.075 199.798,170.666 192,170.666 C180.229,170.666 170.667,180.239 170.667,191.999 C170.667,203.759 180.229,213.333 192,213.333 Z" id="Shape"></path>
        </g>
    </g>
</svg>
