<svg id="Слой_1" data-name="Слой 1" xmlns="http://www.w3.org/2000/svg" width="23" height="28" viewBox="0 0 23 28">
  <path id="Контур_119" data-name="Контур 119" d="M11.5,3.69A7.17,7.17,0,0,0,4.28,10.8c.34,9.4,14.1,9.4,14.44,0A7.19,7.19,0,0,0,11.5,3.69Zm0,12.9A5.8,5.8,0,1,1,11.5,5a5.8,5.8,0,1,1,0,11.59Z" transform="translate(0 0.04)" fill="#5896fd"/>
  <path id="Контур_120" data-name="Контур 120" d="M14.52,8.58l-1.21-.17-.57-1.1a1.4,1.4,0,0,0-2.48,0L9.72,8.38c-.63.14-1.76.11-2.14.73a1.35,1.35,0,0,0,.14,1.79l.87.83L8.4,13a1.39,1.39,0,0,0,2,1.44l1.08-.56,1.12.56a1.39,1.39,0,0,0,2-1.44l-.21-1.17.88-.88a1.36,1.36,0,0,0-.75-2.37Zm-.77,1.94h0a1.59,1.59,0,0,0-.7,1.49l.21,1.17v.06c-.42-.18-1.28-.76-1.75-.72a7.607,7.607,0,0,0-1.72.71h0c-.15.09.16-1.13.15-1.23.22-.85-.75-1.52-1.26-2V9.91c.73-.11,1.91-.1,2.23-.91l.54-1.07h.05L12.08,9a1.37,1.37,0,0,0,1,.74s1.33.13,1.24.23Z" transform="translate(0 0.019)" fill="#5896fd"/>
  <path id="Контур_121" data-name="Контур 121" d="M21.7,12.861A3.152,3.152,0,0,0,23,10.776h0A3.112,3.112,0,0,0,21.7,8.72a2.855,2.855,0,0,1-.78-.908,3.136,3.136,0,0,1,.08-1.3,2.987,2.987,0,0,0-.19-2.375,3.144,3.144,0,0,0-2.27-.918,3.005,3.005,0,0,1-1.21-.309,3.093,3.093,0,0,1-.67-1A3.254,3.254,0,0,0,15.05,0a3.105,3.105,0,0,0-2.34.569,3.174,3.174,0,0,1-1.21.459A3.135,3.135,0,0,1,10.28.6,3.145,3.145,0,0,0,8,0,3,3,0,0,0,6.36,1.866a2.993,2.993,0,0,1-.68,1.058,3.005,3.005,0,0,1-1.22.3h0a3.124,3.124,0,0,0-2.22.918A2.987,2.987,0,0,0,2,6.535a2.987,2.987,0,0,1,.08,1.237,2.905,2.905,0,0,1-.79.918A3.152,3.152,0,0,0,0,10.776a3.172,3.172,0,0,0,1.31,2.1,2.855,2.855,0,0,1,.78.908A3.136,3.136,0,0,1,2,15.036a2.987,2.987,0,0,0,.19,2.375,3.114,3.114,0,0,0,2.27.908,3.217,3.217,0,0,1,.62.1L1.29,25.4a.409.409,0,0,0,.38.589h.08l2.44-.5,1,2.235a.41.41,0,0,0,.38.229A.42.42,0,0,0,6,27.718l3.43-6.336a3.273,3.273,0,0,0,.88-.429,3.194,3.194,0,0,1,1.21-.469,10.012,10.012,0,0,1,2.08.888L17,27.718a.41.41,0,0,0,.37.22.42.42,0,0,0,.38-.229l1-2.235,2.44.5h.08a.409.409,0,0,0,.37-.589L17.86,18.4a3.427,3.427,0,0,1,.63-.09,3.124,3.124,0,0,0,2.26-.918A2.987,2.987,0,0,0,21,15.026a3.066,3.066,0,0,1-.08-1.247,3.145,3.145,0,0,1,.78-.918ZM5.7,25.653l-.35-.708a1.27,1.27,0,0,0-1.15-.728H3.95l-.68.14L6.1,19.177a3.22,3.22,0,0,1,.25.489l.88,1.4a1.74,1.74,0,0,0,.69.439Zm13.38-1.4h-.25a1.27,1.27,0,0,0-1.15.728l-.32.688L15.1,21.512a1.711,1.711,0,0,0,.7-.429h0l.86-1.347a3.589,3.589,0,0,1,.26-.519l2.83,5.218ZM20.8,11.893a3.923,3.923,0,0,0-1.16,1.477,4.092,4.092,0,0,0,.05,1.936c.09.479.21,1.108,0,1.337a2.8,2.8,0,0,1-1.34.389,4.007,4.007,0,0,0-1.86.539,3.991,3.991,0,0,0-1.1,1.576c-.6,1.327-.83,1.367-2,.678a4.2,4.2,0,0,0-1.88-.649,4.276,4.276,0,0,0-1.89.649c-1.23.7-1.44.639-2-.7a3.991,3.991,0,0,0-1.09-1.557,4.147,4.147,0,0,0-1.88-.549c-.5-.06-1.14-.15-1.32-.379s-.06-.808,0-1.327a4.132,4.132,0,0,0,0-1.946,3.992,3.992,0,0,0-1.17-1.487c-1.13-1-1.09-1.247,0-2.225a3.923,3.923,0,0,0,1.2-1.477,4.092,4.092,0,0,0,0-1.936c-.09-.479-.21-1.108,0-1.337A2.809,2.809,0,0,1,4.7,4.53a4.147,4.147,0,0,0,1.77-.539,3.991,3.991,0,0,0,1.1-1.576c.6-1.327.82-1.367,2-.678a4.2,4.2,0,0,0,1.88.649,4.276,4.276,0,0,0,1.89-.649c1.25-.7,1.44-.629,2,.7a3.992,3.992,0,0,0,1.19,1.557,4.147,4.147,0,0,0,1.88.549c.5.06,1.14.15,1.32.379s.06.808,0,1.327a4.132,4.132,0,0,0-.05,1.946,3.883,3.883,0,0,0,1.18,1.487C21.94,10.666,21.9,10.916,20.8,11.893Z" transform="translate(0 0.04)" fill="#5896fd"/>
</svg>
