<svg xmlns="http://www.w3.org/2000/svg" width="32.35" height="56" viewBox="0 0 32.35 56">
  <path id="_" data-name="?" d="M17.185-66.723a.7.7,0,0,1-.791-.791v-3.955a9.13,9.13,0,0,1,1.819-5.853,28.921,28.921,0,0,1,5.3-4.9,30.529,30.529,0,0,0,4.9-4.429,7.6,7.6,0,0,0,1.661-5.062,7.223,7.223,0,0,0-2.333-5.655,8.825,8.825,0,0,0-6.13-2.1,8.885,8.885,0,0,0-6.249,2.175,7.41,7.41,0,0,0-2.373,5.734V-89.5a.7.7,0,0,1-.791.791l-6.011-.316a.7.7,0,0,1-.791-.791v-1.74a14.478,14.478,0,0,1,2.056-7.712,13.818,13.818,0,0,1,5.814-5.22,19.1,19.1,0,0,1,8.582-1.859q7.2,0,11.548,3.955a13.435,13.435,0,0,1,4.35,10.441,14.052,14.052,0,0,1-1.186,6.011,14.076,14.076,0,0,1-2.847,4.153,39.06,39.06,0,0,1-4.271,3.52,26.38,26.38,0,0,0-4.073,3.559,5.359,5.359,0,0,0-1.305,3.638v3.559a.7.7,0,0,1-.791.791ZM20.033-50.35a4.927,4.927,0,0,1-3.638-1.424,4.927,4.927,0,0,1-1.424-3.638,4.927,4.927,0,0,1,1.424-3.638,4.927,4.927,0,0,1,3.638-1.424,4.927,4.927,0,0,1,3.638,1.424,4.927,4.927,0,0,1,1.424,3.638,4.927,4.927,0,0,1-1.424,3.638A4.927,4.927,0,0,1,20.033-50.35Z" transform="translate(-5.4 106.35)" fill="#efefef"/>
</svg>
